{
	"page": 1,
	"per_page": 6,
	"total": 29,
	"total_pages": 5,
	"data": [
		{
			"id": 2,
			"flightName": "Go First",
			"country": "India",
			"destinations": "92",
			"uRL": "\"https:\\/\\/en.wikipedia.org\\/wiki\\/Go_First\""
		},
		{
			"id": 3,
			"flightName": "Indigo",
			"country": "India",
			"destinations": "38",
			"uRL": "\"https:\\/\\/en.wikipedia.org\\/wiki\\/IndiGo\""
		},
		{
			"id": 4,
			"flightName": "SpiceJet",
			"country": "India",
			"destinations": "64",
			"uRL": "\"https:\\/\\/en.wikipedia.org\\/wiki\\/SpiceJet\""
		},
		{
			"id": 5,
			"flightName": "Vistara",
			"country": "India",
			"destinations": "55",
			"uRL": "\"https:\\/\\/en.wikipedia.org\\/wiki\\/Vistara\""
		},
		{
			"id": 6,
			"flightName": "JetAirways",
			"country": "India",
			"destinations": "46",
			"uRL": "\"https:\\/\\/en.wikipedia.org\\/wiki\\/Jet_Airways\""
		},
		{
			"id": 7,
			"flightName": "AlaskaAirlines",
			"country": "India",
			"destinations": "27",
			"uRL": "\"https:\\/\\/en.wikipedia.org\\/wiki\\/Alaska_Airlines\""
		}
	],
	"support": {
		"url": "\"https:\\/\\/www.omrbranch.com\"",
		"text": "\"For Joining Automation Course, Please Contact-Velmurugan 9944152058\""
	}
}